id;name;price
1;Ivanov;133
2;Petrov;188
3;Sidorov;188
4;Kozlov;124
5;Ivanov;162
6;Petrov;178
7;Sidorov;200
8;Kozlov;126
9;Ivanov;183
10;Petrov;180
11;Sidorov;112
12;Kozlov;127
13;Ivanov;161
14;Petrov;118
15;Sidorov;176
16;Kozlov;105
17;Ivanov;161
18;Petrov;102
19;Sidorov;134
